<?xml version="1.0" encoding="UTF-8" standalone="no"?>
<!-- Generator: Adobe Illustrator 22.0.1, SVG Export Plug-In . SVG Version: 6.00 Build 0)  -->
<svg style="enable-background:new 0 0 100 100" xmlns="http://www.w3.org/2000/svg" xml:space="preserve" version="1.1" y="0px" x="0px" xmlns:xlink="http://www.w3.org/1999/xlink" viewBox="0 0 100 100">
<style type="text/css">
	.st0{display:none;}
	.st1{display:inline;}
	.st2{fill:#E3E9F5;}
	.st3{fill:#18BCF5;}
	.st4{fill:#FFFFFF;}
	.st5{fill:#A5DBF5;}
	.st6{fill:#D6DDEC;}
	.st7{fill:#C2B3F9;}
	.st8{fill:#C6CEE1;}
	.st9{fill:#28BDFF;}
	.st10{fill:#C2E578;}
	.st11{fill:#FFE081;}
	.st12{fill:#F7F9FC;}
	.st13{fill:#EEF2F9;}
	.st14{fill:#CC6B66;}
	.st15{fill:#B85C59;}
	.st16{fill:#D4D9E9;}
	.st17{fill:#BCC1D8;}
	.st18{fill:#E4E7F2;}
	.st19{fill:#767686;}
	.st20{fill:#5E5F6E;}
	.st21{fill:#87BFE8;}
	.st22{fill:#76A6D8;}
	.st23{fill:#D5DD80;}
	.st24{fill:#C4D272;}
	.st25{fill:#E2E6F2;}
	.st26{fill:#FF7900;}
	.st27{fill:#FFB000;}
	.st28{fill:#FFC200;}
	.st29{clip-path:url(#SVGID_2_);fill:#AEBACF;}
	.st30{clip-path:url(#SVGID_2_);fill:#B3E073;}
	.st31{fill:#AEBACF;}
	.st32{fill:#B3E073;}
	.st33{fill:#464655;}
	.st34{fill:#5B5D6E;}
	.st35{fill:#707486;}
	.st36{fill:#EEF1F9;}
	.st37{fill:#AEB8D1;}
	.st38{fill:#F6AAAE;}
</style>
<g id="Capa_1" class="st0">
	<g class="st1">
		<path class="st2" d="m93.1 26.7h-86.2c-1 0-1.9-0.9-1.9-1.9v-14.8c0-1 0.9-1.9 1.9-1.9h86.2c1 0 1.9 0.9 1.9 1.9v14.8c0 1.1-0.9 1.9-1.9 1.9z"/>
		<path class="st3" d="m78.7 26.7h14c1.3 0 2.3-1 2.3-2.3v-14c0-1.3-1-2.3-2.3-2.3h-14c-1.3 0-2.3 1-2.3 2.3v14c0 1.3 1 2.3 2.3 2.3z"/>
		<path class="st4" d="m91.4 21l-3.1-3.1c0.3-0.6 0.5-1.3 0.5-2 0-2.6-2.1-4.7-4.7-4.7s-4.7 2.1-4.7 4.7 2.1 4.7 4.7 4.7c0.7 0 1.4-0.2 2-0.5l3.1 3.1c0.3 0.3 0.7 0.5 1.1 0.5s0.8-0.2 1.1-0.5c0.6-0.6 0.6-1.6 0-2.2zm-7.3-3.6c-0.9 0-1.6-0.7-1.6-1.6s0.7-1.6 1.6-1.6 1.6 0.7 1.6 1.6-0.7 1.6-1.6 1.6z"/>
		<path class="st5" d="m71.7 17.4c0 2.1-1.7 3.9-3.9 3.9-2.1 0-3.9-1.7-3.9-3.9 0-2.1 1.7-3.9 3.9-3.9s3.9 1.8 3.9 3.9z"/>
		<path class="st6" d="m60.9 17.4c0 2.1-1.7 3.9-3.9 3.9-2.1 0-3.9-1.7-3.9-3.9 0-2.1 1.7-3.9 3.9-3.9 2.1 0 3.9 1.8 3.9 3.9z"/>
		<path class="st2" d="m93.1 51.6h-86.2c-1 0-1.9-0.9-1.9-1.9v-14.9c0-1 0.9-1.9 1.9-1.9h86.2c1 0 1.9 0.9 1.9 1.9v14.8c0 1.1-0.9 2-1.9 2z"/>
		<path class="st7" d="m19 48.4h-9.3c-0.9 0-1.6-0.7-1.6-1.6v-9.3c0-0.9 0.7-1.6 1.6-1.6h9.3c0.9 0 1.6 0.7 1.6 1.6v9.3c-0.1 1-0.8 1.6-1.6 1.6z"/>
		<path class="st8" d="m81 46.9h-55.8c-0.9 0-1.6-0.7-1.6-1.6s0.7-1.6 1.6-1.6h55.8c0.9 0 1.6 0.7 1.6 1.6s-0.7 1.6-1.6 1.6z"/>
		<path class="st9" d="m56.2 40.7h-31c-0.9 0-1.6-0.7-1.6-1.6s0.7-1.6 1.6-1.6h31c0.9 0 1.6 0.7 1.6 1.6s-0.7 1.6-1.6 1.6z"/>
		<path class="st10" d="m19 70.2h-9.3c-0.9 0-1.6-0.7-1.6-1.6v-9.3c0-0.9 0.7-1.6 1.6-1.6h9.3c0.9 0 1.6 0.7 1.6 1.6v9.3c-0.1 0.9-0.8 1.6-1.6 1.6z"/>
		<path class="st8" d="m81 68.6h-55.8c-0.9 0-1.6-0.7-1.6-1.6s0.7-1.6 1.6-1.6h55.8c0.9 0 1.6 0.7 1.6 1.6s-0.7 1.6-1.6 1.6z"/>
		<path class="st9" d="m56.2 62.4h-31c-0.9 0-1.6-0.7-1.6-1.6s0.7-1.6 1.6-1.6h31c0.9 0 1.6 0.7 1.6 1.6s-0.7 1.6-1.6 1.6z"/>
		<path class="st11" d="m19 91.9h-9.3c-0.9 0-1.6-0.7-1.6-1.6v-9.3c0-0.9 0.7-1.6 1.6-1.6h9.3c0.9 0 1.6 0.7 1.6 1.6v9.3c-0.1 0.9-0.8 1.6-1.6 1.6z"/>
		<path class="st8" d="m81 90.3h-55.8c-0.9 0-1.6-0.7-1.6-1.6s0.7-1.6 1.6-1.6h55.8c0.9 0 1.6 0.7 1.6 1.6 0 1-0.7 1.6-1.6 1.6z"/>
		<path class="st9" d="m56.2 84.1h-31c-0.9 0-1.6-0.7-1.6-1.6s0.7-1.6 1.6-1.6h31c0.9 0 1.6 0.7 1.6 1.6s-0.7 1.6-1.6 1.6z"/>
	</g>
</g>
<g id="Capa_2" class="st0">
	<g class="st1">
		<path class="st12" d="m91.9 85.7h-83.8c-1.7 0-3.1-1.4-3.1-3.1v-71.4c0-1.7 1.4-3.1 3.1-3.1h83.8c1.7 0 3.1 1.4 3.1 3.1v71.4c0 1.7-1.4 3.1-3.1 3.1z"/>
		<path class="st13" d="m71.5 85.7c2.1-3.7 3.3-7.9 3.3-12.4 0-13.7-11.1-24.8-24.8-24.8s-24.8 11.1-24.8 24.8c0 4.5 1.2 8.8 3.3 12.4h43z"/>
		<path class="st14" d="m95 23.6h-90v-12.4c0-1.7 1.4-3.1 3.1-3.1h83.8c1.7 0 3.1 1.4 3.1 3.1v12.4z"/>
		<polygon points="5 23.6 95 23.6 95 26.7 5 26.7" class="st13"/>
		<path class="st15" d="m18.2 10.4c2.6 0 4.7 2.1 4.7 4.7s-2.1 4.7-4.7 4.7-4.7-2.1-4.7-4.7 2.1-4.7 4.7-4.7z"/>
		<path class="st16" d="m18.2 17.4c-1.3 0-2.3-1-2.3-2.3v-7.8c0-1.3 1-2.3 2.3-2.3s2.3 1 2.3 2.3v7.8c0 1.3-1 2.3-2.3 2.3z"/>
		<path class="st17" d="m18.2 12.8c-1.3 0-2.3-1-2.3-2.3v4.7c0 1.3 1 2.3 2.3 2.3s2.3-1 2.3-2.3v-4.7c0 1.2-1 2.3-2.3 2.3z"/>
		<path class="st15" d="m81.8 10.4c2.6 0 4.7 2.1 4.7 4.7s-2.1 4.7-4.7 4.7-4.7-2.1-4.7-4.7c0.1-2.6 2.1-4.7 4.7-4.7z"/>
		<path class="st16" d="m81.8 17.4c-1.3 0-2.3-1-2.3-2.3v-7.8c0-1.3 1-2.3 2.3-2.3s2.3 1 2.3 2.3v7.8c0 1.3-1 2.3-2.3 2.3z"/>
		<path class="st17" d="m81.8 12.8c-1.3 0-2.3-1-2.3-2.3v4.7c0 1.3 1 2.3 2.3 2.3s2.3-1 2.3-2.3v-4.7c0 1.2-1 2.3-2.3 2.3z"/>
		<path class="st13" d="m22.1 45.3h-6.2c-0.9 0-1.6-0.7-1.6-1.6v-4.7c0-0.9 0.7-1.6 1.6-1.6h6.2c0.9 0 1.6 0.7 1.6 1.6v4.7c-0.1 1-0.8 1.6-1.6 1.6z"/>
		<path class="st13" d="m34.5 45.3h-6.2c-0.9 0-1.6-0.7-1.6-1.6v-4.7c0-0.9 0.7-1.6 1.6-1.6h6.2c0.9 0 1.6 0.7 1.6 1.6v4.7c-0.1 1-0.8 1.6-1.6 1.6z"/>
		<path class="st13" d="m46.9 45.3h-6.2c-0.9 0-1.6-0.7-1.6-1.6v-4.7c0-0.9 0.7-1.6 1.6-1.6h6.2c0.9 0 1.6 0.7 1.6 1.6v4.7c-0.1 1-0.7 1.6-1.6 1.6z"/>
		<path class="st13" d="m59.3 45.3h-6.2c-0.9 0-1.6-0.7-1.6-1.6v-4.7c0-0.9 0.7-1.6 1.6-1.6h6.2c0.9 0 1.6 0.7 1.6 1.6v4.7c0 1-0.7 1.6-1.6 1.6z"/>
		<path class="st18" d="m71.7 45.3h-6.2c-0.9 0-1.6-0.7-1.6-1.6v-4.7c0-0.9 0.7-1.6 1.6-1.6h6.2c0.9 0 1.6 0.7 1.6 1.6v4.7c0 1-0.7 1.6-1.6 1.6z"/>
		<path class="st18" d="m84.1 45.3h-6.2c-0.9 0-1.6-0.7-1.6-1.6v-4.7c0-0.9 0.7-1.6 1.6-1.6h6.2c0.9 0 1.6 0.7 1.6 1.6v4.7c0 1-0.7 1.6-1.6 1.6z"/>
		<path class="st16" d="m22.1 34.5h-6.2c-0.9 0-1.6-0.7-1.6-1.6s0.7-1.6 1.6-1.6h6.2c0.9 0 1.6 0.7 1.6 1.6-0.1 0.9-0.8 1.6-1.6 1.6z"/>
		<path class="st16" d="m34.5 34.5h-6.2c-0.9 0-1.6-0.7-1.6-1.6s0.7-1.6 1.6-1.6h6.2c0.9 0 1.6 0.7 1.6 1.6-0.1 0.9-0.8 1.6-1.6 1.6z"/>
		<path class="st16" d="m46.9 34.5h-6.2c-0.9 0-1.6-0.7-1.6-1.6s0.7-1.6 1.6-1.6h6.2c0.9 0 1.6 0.7 1.6 1.6-0.1 0.9-0.7 1.6-1.6 1.6z"/>
		<path class="st16" d="m59.3 34.5h-6.2c-0.9 0-1.6-0.7-1.6-1.6s0.7-1.6 1.6-1.6h6.2c0.9 0 1.6 0.7 1.6 1.6s-0.7 1.6-1.6 1.6z"/>
		<path class="st14" d="m71.7 34.5h-6.2c-0.9 0-1.6-0.7-1.6-1.6s0.7-1.6 1.6-1.6h6.2c0.9 0 1.6 0.7 1.6 1.6s-0.7 1.6-1.6 1.6z"/>
		<path class="st14" d="m84.1 34.5h-6.2c-0.9 0-1.6-0.7-1.6-1.6s0.7-1.6 1.6-1.6h6.2c0.9 0 1.6 0.7 1.6 1.6s-0.7 1.6-1.6 1.6z"/>
		<path class="st13" d="m22.1 56.2h-6.2c-0.9 0-1.6-0.7-1.6-1.6v-4.6c0-0.9 0.7-1.6 1.6-1.6h6.2c0.9 0 1.6 0.7 1.6 1.6v4.7c-0.1 0.8-0.8 1.5-1.6 1.5z"/>
		<path class="st13" d="m34.5 56.2h-6.2c-0.9 0-1.6-0.7-1.6-1.6v-4.6c0-0.9 0.7-1.6 1.6-1.6h6.2c0.9 0 1.6 0.7 1.6 1.6v4.7c-0.1 0.8-0.8 1.5-1.6 1.5z"/>
		<path class="st13" d="m46.9 56.2h-6.2c-0.9 0-1.6-0.7-1.6-1.6v-4.6c0-0.9 0.7-1.6 1.6-1.6h6.2c0.9 0 1.6 0.7 1.6 1.6v4.7c-0.1 0.8-0.7 1.5-1.6 1.5z"/>
		<path class="st13" d="m59.3 56.2h-6.2c-0.9 0-1.6-0.7-1.6-1.6v-4.6c0-0.9 0.7-1.6 1.6-1.6h6.2c0.9 0 1.6 0.7 1.6 1.6v4.7c0 0.8-0.7 1.5-1.6 1.5z"/>
		<path class="st18" d="m71.7 56.2h-6.2c-0.9 0-1.6-0.7-1.6-1.6v-4.6c0-0.9 0.7-1.6 1.6-1.6h6.2c0.9 0 1.6 0.7 1.6 1.6v4.7c0 0.8-0.7 1.5-1.6 1.5z"/>
		<path class="st18" d="m84.1 56.2h-6.2c-0.9 0-1.6-0.7-1.6-1.6v-4.6c0-0.9 0.7-1.6 1.6-1.6h6.2c0.9 0 1.6 0.7 1.6 1.6v4.7c0 0.8-0.7 1.5-1.6 1.5z"/>
		<path class="st13" d="m22.1 67.1h-6.2c-0.9 0-1.6-0.7-1.6-1.6v-4.7c0-0.9 0.7-1.6 1.6-1.6h6.2c0.9 0 1.6 0.7 1.6 1.6v4.7c-0.1 0.9-0.8 1.6-1.6 1.6z"/>
		<path class="st13" d="m34.5 67.1h-6.2c-0.9 0-1.6-0.7-1.6-1.6v-4.7c0-0.9 0.7-1.6 1.6-1.6h6.2c0.9 0 1.6 0.7 1.6 1.6v4.7c-0.1 0.9-0.8 1.6-1.6 1.6z"/>
		<path class="st13" d="m46.9 67.1h-6.2c-0.9 0-1.6-0.7-1.6-1.6v-4.7c0-0.9 0.7-1.6 1.6-1.6h6.2c0.9 0 1.6 0.7 1.6 1.6v4.7c-0.1 0.9-0.7 1.6-1.6 1.6z"/>
		<path class="st13" d="m59.3 67.1h-6.2c-0.9 0-1.6-0.7-1.6-1.6v-4.7c0-0.9 0.7-1.6 1.6-1.6h6.2c0.9 0 1.6 0.7 1.6 1.6v4.7c0 0.9-0.7 1.6-1.6 1.6z"/>
		<path class="st18" d="m71.7 67.1h-6.2c-0.9 0-1.6-0.7-1.6-1.6v-4.7c0-0.9 0.7-1.6 1.6-1.6h6.2c0.9 0 1.6 0.7 1.6 1.6v4.7c0 0.9-0.7 1.6-1.6 1.6z"/>
		<path class="st18" d="m84.1 67.1h-6.2c-0.9 0-1.6-0.7-1.6-1.6v-4.7c0-0.9 0.7-1.6 1.6-1.6h6.2c0.9 0 1.6 0.7 1.6 1.6v4.7c0 0.9-0.7 1.6-1.6 1.6z"/>
		<path class="st13" d="m22.1 77.9h-6.2c-0.9 0-1.6-0.7-1.6-1.6v-4.7c0-0.9 0.7-1.6 1.6-1.6h6.2c0.9 0 1.6 0.7 1.6 1.6v4.7c-0.1 0.9-0.8 1.6-1.6 1.6z"/>
		<path class="st13" d="m34.5 77.9h-6.2c-0.9 0-1.6-0.7-1.6-1.6v-4.7c0-0.9 0.7-1.6 1.6-1.6h6.2c0.9 0 1.6 0.7 1.6 1.6v4.7c-0.1 0.9-0.8 1.6-1.6 1.6z"/>
		<path class="st13" d="m46.9 77.9h-6.2c-0.9 0-1.6-0.7-1.6-1.6v-4.7c0-0.9 0.7-1.6 1.6-1.6h6.2c0.9 0 1.6 0.7 1.6 1.6v4.7c-0.1 0.9-0.7 1.6-1.6 1.6z"/>
		<path class="st13" d="m59.3 77.9h-6.2c-0.9 0-1.6-0.7-1.6-1.6v-4.7c0-0.9 0.7-1.6 1.6-1.6h6.2c0.9 0 1.6 0.7 1.6 1.6v4.7c0 0.9-0.7 1.6-1.6 1.6z"/>
		<path class="st18" d="m71.7 77.9h-6.2c-0.9 0-1.6-0.7-1.6-1.6v-4.7c0-0.9 0.7-1.6 1.6-1.6h6.2c0.9 0 1.6 0.7 1.6 1.6v4.7c0 0.9-0.7 1.6-1.6 1.6z"/>
		<path class="st18" d="m84.1 77.9h-6.2c-0.9 0-1.6-0.7-1.6-1.6v-4.7c0-0.9 0.7-1.6 1.6-1.6h6.2c0.9 0 1.6 0.7 1.6 1.6v4.7c0 0.9-0.7 1.6-1.6 1.6z"/>
		<path class="st17" d="m50 51.6c12 0 21.7 9.7 21.7 21.7s-9.7 21.7-21.7 21.7-21.7-9.7-21.7-21.7 9.7-21.7 21.7-21.7z"/>
		<path class="st4" d="m50 54.7c10.3 0 18.6 8.3 18.6 18.6s-8.3 18.6-18.6 18.6-18.6-8.3-18.6-18.6 8.3-18.6 18.6-18.6z"/>
		<path class="st12" d="m50 62.4c6 0 10.9 4.9 10.9 10.9s-4.9 10.9-10.9 10.9-10.9-4.9-10.9-10.9 4.9-10.9 10.9-10.9z"/>
		<path class="st19" d="m50 53.1c-0.9 0-1.6 0.7-1.6 1.6v1.6c0 0.9 0.7 1.6 1.6 1.6s1.6-0.7 1.6-1.6v-1.6c0-0.9-0.7-1.6-1.6-1.6z"/>
		<path class="st19" d="m50 88.8c-0.9 0-1.6 0.7-1.6 1.6v1.6c0 0.9 0.7 1.6 1.6 1.6s1.6-0.7 1.6-1.6v-1.6c0-0.9-0.7-1.6-1.6-1.6z"/>
		<path class="st19" d="m70.2 73.3c0-0.9-0.7-1.6-1.6-1.6h-1.6c-0.9 0-1.6 0.7-1.6 1.6s0.7 1.6 1.6 1.6h1.6c0.9-0.1 1.6-0.8 1.6-1.6z"/>
		<path class="st19" d="m34.5 73.3c0-0.9-0.7-1.6-1.6-1.6h-1.6c-0.9 0-1.6 0.7-1.6 1.6s0.7 1.6 1.6 1.6h1.6c0.9-0.1 1.6-0.8 1.6-1.6z"/>
		<path class="st20" d="m50 79.5c-0.9 0-1.6-0.7-1.6-1.6v-15.5c0-0.9 0.7-1.6 1.6-1.6s1.6 0.7 1.6 1.6v15.5c0 0.9-0.7 1.6-1.6 1.6z"/>
		<path class="st20" d="m43.8 73.3c0-0.9 0.7-1.6 1.6-1.6h15.5c0.9 0 1.6 0.7 1.6 1.6s-0.7 1.6-1.6 1.6h-15.6c-0.8-0.1-1.5-0.8-1.5-1.6z"/>
		<path class="st16" d="m50 70.2c1.7 0 3.1 1.4 3.1 3.1s-1.4 3.1-3.1 3.1-3.1-1.4-3.1-3.1 1.4-3.1 3.1-3.1z"/>
	</g>
</g>
<g id="Capa_3" class="st0">
	<g class="st1">
		<path class="st21" d="m50 17.7c17.9 0 32.3 14.5 32.3 32.3s-14.4 32.3-32.3 32.3-32.3-14.4-32.3-32.3 14.4-32.3 32.3-32.3z"/>
		<path class="st22" d="m66.2 73.6c-17.9 0-32.3-14.5-32.3-32.3 0-9 3.7-17.1 9.6-23-14.7 3-25.7 16.1-25.7 31.7 0 17.9 14.5 32.3 32.3 32.3 8.9 0 16.9-3.6 22.8-9.4-2.3 0.5-4.5 0.7-6.7 0.7z"/>
		<path class="st23" d="m81.9 44.4c-2.5-14.1-13.8-24.5-27.2-26.4l2.2 2.7c0.3 0.3 0.3 0.8 0.2 1.1l-1.5 3.5c-0.2 0.4-0.6 0.4-0.9 0.1l-1.4-2c-0.2-0.3-0.6-0.5-1-0.5l-1.5 0.1c-0.5 0-1 0.3-1.3 0.8l-4.2 6.2c-0.4 0.6-0.1 1.4 0.6 1.5l1.9 0.4c0.6 0.1 1.3-0.2 1.5-0.9l0.9-2.5c0.3-0.7 1.2-0.9 1.7-0.3l0.9 1.1-0.5 3.4c0 0.2-0.2 0.4-0.4 0.4l-4.4 0.6c-0.2 0-0.4 0.1-0.5 0.2l-4.3 3.1c-0.4 0.3-0.7 0.8-0.9 1.3l-0.4 1.7c-0.1 0.6-0.7 0.9-1.2 0.9l-1.9-0.2c-0.5-0.1-1 0.2-1.2 0.7l-1.1 2.9c-0.2 0.6 0.1 1.3 0.7 1.5l2.5 0.7c0.6 0.2 1.3-0.1 1.6-0.7l1.6-3.5c0.3-0.6 0.8-1 1.4-1.2l2.6-0.8 3.5 4.3-0.3 1c-0.2 0.6 0.1 1.3 0.7 1.5 0.1 0 0.2 0.1 0.4 0.1 0.5 0 0.9-0.3 1.1-0.8l0.3-1c0.3-0.7 0.1-1.6-0.4-2.2l-3-3.6 0.8-0.2 2.5 1.6c0.5 0.3 0.9 0.9 1 1.5l0.6 2.7c0.1 0.5 0.6 0.9 1.1 0.9h0.2c0.6-0.1 1-0.7 0.9-1.4l-0.3-1.5c-0.1-0.5 0.3-1.1 0.8-1.1 0.4-0.1 0.7-0.4 0.8-0.8l0.6-2.7c0.1-0.5 0.6-0.8 1.2-0.8h0.6c0.3 0 0.6-0.1 0.8-0.3s0.5-0.4 0.8-0.3l1.8 0.2c0.4 0.1 0.6 0.4 0.7 0.8l0.2 0.7c0.1 0.6-0.2 1.2-0.8 1.3l-5 1.5c-0.6 0.2-0.8 0.9-0.4 1.3l0.5 0.5c0.2 0.2 0.5 0.4 0.8 0.3l2.9-0.2c0.6 0 1.1 0.3 1.2 0.9l0.1 0.7c0.3 1.3-0.7 2.6-2 2.7l-5.6 0.4c-0.6 0.1-1.1 0.7-0.9 1.3 0.2 0.8-0.5 1.5-1.3 1.3l-4.2-1.4c-0.6-0.2-1-0.7-1.1-1.3-0.1-0.8-0.8-1.4-1.6-1.3l-4 0.1c-1.4 0-2.8 0.3-4.1 0.9l-1.3 0.5c-0.8 0.3-1.3 1.1-1.3 2v1.1l-4 4.6c-0.5 0.3-0.7 0.9-0.7 1.4v4.9c0 0.9 0.4 1.8 1 2.4l3.5 3.4c0.6 0.5 1.3 0.9 2 0.9l10.5 0.9c0.7 0.1 1.1 0.6 1 1.3l-0.1 0.5c-0.1 0.8 0.2 1.6 0.9 2.1l2.6 1.9-0.4 1.3c-0.3 0.9 0 1.8 0.7 2.4l2.7 2.4c2.7-0.5 5.3-1.3 7.7-2.4l4.3-5.1c0.7-0.8 1.3-1.7 1.7-2.7l4.8-11c0.5-1.2-0.3-2.5-1.6-2.5-1.4 0-2.7-0.6-3.6-1.7l-4.7-5.7c-0.4-0.5-0.3-1.2 0.1-1.6 0.5-0.4 1.2-0.3 1.6 0.1l4.7 5.7c0.4 0.5 1 0.8 1.7 0.8s1.4-0.5 1.7-1.1l2.8-5.5c0.3-0.5 0.1-1.1-0.4-1.4l-0.8-0.5c-0.3-0.2-0.4-0.6-0.2-0.9l0.4-0.6c0.8-1.2 2.4-1.4 3.4-0.4l3 2.9c0.2-1.3 0.1-2.6-0.1-3.9z"/>
		<path class="st23" d="m40.2 36.5c-0.3 0-0.6-0.1-0.8-0.4-0.4-0.5-0.4-1.2 0-1.6l1-1v-2.5c0-0.6 0.5-1.2 1.1-1.2s1.1 0.5 1.2 1.1v3c0 0.3-0.1 0.6-0.4 0.9l-1.3 1.4c-0.2 0.2-0.5 0.3-0.8 0.3z"/>
		<path class="st24" d="m66.2 73.6c-14.3 0-26.4-9.2-30.7-22.1l-3.9 4.5c-0.4 0.4-0.6 1-0.6 1.5v4.9c0 0.9 0.4 1.8 1 2.4l3.5 3.4c0.6 0.5 1.3 0.9 2 0.9l10.5 0.9c0.7 0.1 1.1 0.6 1 1.3l-0.1 0.5c-0.1 0.8 0.2 1.6 0.9 2.1l2.6 1.9-0.4 1.3c-0.3 0.9 0 1.8 0.7 2.4l2.7 2.4h0.1c2-0.4 3.9-0.9 5.7-1.6 0.1-0.1 0.3-0.1 0.4-0.2 0.4-0.2 0.8-0.3 1.2-0.5 0.1-0.1 0.3-0.1 0.4-0.2l4.3-5.1c0.2-0.2 0.4-0.5 0.5-0.8-0.5 0.1-1.1 0.1-1.8 0.1z"/>
		<path class="st25" d="m90.7 30.7c-0.3-0.7-1.2-1-1.9-0.7s-1 1.2-0.7 1.9c2.7 5.7 4.1 11.8 4.1 18.1 0 23.3-18.9 42.2-42.2 42.2-12.3 0-23.8-5.2-31.8-14.5l4.9 1.6c0.7 0.2 1.5-0.2 1.8-0.9 0.2-0.7-0.2-1.5-0.9-1.8l-9.3-3.1c-0.5-0.2-1-0.1-1.3 0.3-0.4 0.3-0.6 0.8-0.5 1.3l1.5 10.9c0.1 0.7 0.7 1.2 1.4 1.2h0.2c0.8-0.1 1.3-0.8 1.2-1.6l-0.8-5.8c8.5 9.7 20.6 15.2 33.6 15.2 24.8 0 45-20.2 45-45 0-6.7-1.5-13.2-4.3-19.3z"/>
		<path class="st25" d="m7.8 50c0-23.3 18.9-42.2 42.2-42.2 12.3 0 23.8 5.2 31.8 14.5l-4.9-1.6c-0.7-0.2-1.5 0.2-1.8 0.9-0.2 0.7 0.2 1.5 0.9 1.8l9.3 3.1c0.1 0 0.3 0.1 0.4 0.1 0.3 0 0.6-0.1 0.9-0.3 0.4-0.3 0.6-0.8 0.5-1.3l-1.5-11c-0.1-0.8-0.8-1.3-1.6-1.2s-1.3 0.8-1.2 1.6l0.8 5.8c-8.5-9.7-20.6-15.2-33.6-15.2-24.8 0-45 20.2-45 45 0 6.7 1.5 13.2 4.3 19.3 0.2 0.5 0.7 0.8 1.3 0.8 0.2 0 0.4 0 0.6-0.1 0.7-0.3 1-1.2 0.7-1.9-2.7-5.7-4.1-11.8-4.1-18.1z"/>
	</g>
</g>
<g id="Capa_4">
		<path class="st26" d="m37.7 90.4c2.4 2 7.7 4.1 12.3 4.1s10-2 12.3-4.1h-24.6z"/>
		<path class="st27" d="m85.6 80.4h-3.4c0-1.4-0.3-0.9-0.3-1.1 0-12.8-9.1 0.1-12-30.7v-5.6c0-11.3-8.7-20.5-20-20.5s-20 9.1-20 20.5v5.6c-2.9 30.9-12 17.8-12 30.8 0 0.3-0.3-0.3-0.3 1.1h-3.4c-1.7 0-2.9 0.7-2.9 2.4v2.1c0 1.6 1.1 2.4 2.9 2.4h71.3c1.7 0 2.9-0.9 2.9-2.6v-2.1c0.1-1.6-1-2.3-2.8-2.3z"/>
		<path class="st27" d="m85.6 80.4h-3.4c0-1.4-0.3-0.9-0.3-1.1 0-12.8-9.1 0.1-12-30.7v-5.6c0-11.3-8.7-20.5-20-20.5s-20 9.1-20 20.5v5.6c-2.9 30.9-12 17.8-12 30.8 0 0.3-0.3-0.3-0.3 1.1h-3.4c-1.7 0-2.9 0.7-2.9 2.4v2.1c0 1.6 1.1 2.4 2.9 2.4h71.3c1.7 0 2.9-0.9 2.9-2.6v-2.1c0.1-1.6-1-2.3-2.8-2.3z"/>
		<path class="st27" d="m50 26.6c-5.8 0-10.6-4.7-10.6-10.6 0-5.8 4.7-10.6 10.6-10.6 5.8 0 10.6 4.7 10.6 10.6s-4.8 10.6-10.6 10.6zm0-16.8c-3.4 0-6.3 2.9-6.3 6.3s2.9 6.3 6.3 6.3 6.3-2.9 6.3-6.3c0-3.5-2.9-6.3-6.3-6.3z"/>
		<path class="st28" d="m30 48.6c-2.9 24-8 21.2-10.7 25 20.7-1.2 36.1-16.6 37-35.4 0.3-5.3 0.3-10.3 0-14.8-2-0.6-3.9-1-6-1-11.3-0.1-20.3 9.1-20.3 20.5v5.7z"/>
		<path class="st28" d="m60.3 13.9c-1-4.8-5.3-8.4-10.3-8.4-5.8 0-10.6 4.7-10.6 10.6 0 4.4 2.7 8.1 6.4 9.7 6.9-0.8 12.5-5.5 14.5-11.9zm-10.3-4.1c3.4 0 6.3 2.9 6.3 6.3s-2.9 6.3-6.3 6.3-6.3-2.9-6.3-6.3c0-3.5 2.9-6.3 6.3-6.3z"/>
</g>
<g id="Capa_5" class="st0">
	<g class="st1">
		<path class="st2" d="m91.8 17.3c0-0.9-0.7-1.6-1.6-1.6h-80.5c-0.9 0-1.6 0.7-1.6 1.6v12.4c0 0.9 0.7 1.6 1.6 1.6h80.6c0.9 0 1.6-0.7 1.6-1.6v-12.4zm-68.2 6.2c0 0.9-0.7 1.6-1.6 1.6h-0.4l0.2 0.4c0.4 0.7 0.2 1.7-0.6 2.1-0.7 0.4-1.7 0.2-2.1-0.6l-0.1-0.4-0.3 0.4c-0.4 0.7-1.4 1-2.1 0.6s-1-1.4-0.6-2.1l0.2-0.4h-0.4c-0.9 0-1.6-0.7-1.6-1.6s0.7-1.6 1.6-1.6h0.4l-0.2-0.4c-0.4-0.7-0.2-1.7 0.6-2.1 0.7-0.4 1.7-0.2 2.1 0.6l0.2 0.4 0.2-0.4c0.4-0.7 1.4-1 2.1-0.6s1 1.4 0.6 2.1l-0.2 0.5h0.4c0.9 0 1.6 0.7 1.6 1.5zm12.4 0c0 0.9-0.7 1.6-1.6 1.6h-0.4l0.2 0.4c0.4 0.7 0.2 1.7-0.6 2.1-0.7 0.4-1.6 0.1-2-0.6l-0.2-0.4-0.2 0.4c-0.4 0.7-1.4 1-2.1 0.6s-1-1.4-0.6-2.1l0.2-0.4h-0.4c-0.9 0-1.6-0.7-1.6-1.6s0.7-1.6 1.6-1.6h0.4l-0.2-0.4c-0.4-0.7-0.2-1.7 0.6-2.1 0.7-0.4 1.7-0.2 2.1 0.6l0.2 0.4 0.2-0.4c0.4-0.7 1.4-1 2.1-0.6s1 1.4 0.6 2.1l-0.3 0.5h0.4c0.9 0 1.6 0.7 1.6 1.5zm12.4 0c0 0.9-0.7 1.6-1.6 1.6h-0.4l0.2 0.4c0.4 0.7 0.2 1.7-0.6 2.1-0.7 0.4-1.6 0.1-2-0.6l-0.2-0.4-0.2 0.4c-0.4 0.7-1.4 1-2.1 0.6s-1-1.4-0.6-2.1l0.2-0.4h-0.4c-0.9 0-1.6-0.7-1.6-1.6s0.7-1.6 1.6-1.6h0.4l-0.2-0.4c-0.4-0.7-0.2-1.7 0.6-2.1 0.7-0.4 1.7-0.2 2.1 0.6l0.2 0.4 0.2-0.4c0.4-0.7 1.4-1 2.1-0.6s1 1.4 0.6 2.1l-0.3 0.5h0.4c0.9 0 1.6 0.7 1.6 1.5zm12.4 0c0 0.9-0.7 1.6-1.6 1.6h-0.4l0.2 0.4c0.4 0.7 0.2 1.7-0.6 2.1-0.7 0.4-1.7 0.2-2.1-0.6l-0.2-0.4-0.1 0.4c-0.4 0.7-1.4 1-2.1 0.6s-1-1.4-0.6-2.1l0.2-0.4h-0.4c-0.9 0-1.6-0.7-1.6-1.6s0.7-1.6 1.6-1.6h0.4l-0.2-0.4c-0.4-0.7-0.2-1.7 0.6-2.1 0.7-0.4 1.7-0.2 2.1 0.6l0.2 0.4 0.2-0.4c0.4-0.7 1.4-1 2.1-0.6s1 1.4 0.6 2.1l-0.2 0.5h0.4c0.8 0 1.5 0.7 1.5 1.5zm12.4 0c0 0.9-0.7 1.6-1.6 1.6h-0.4l0.2 0.4c0.4 0.7 0.2 1.7-0.6 2.1-0.7 0.4-1.7 0.2-2.1-0.6l-0.2-0.4-0.1 0.4c-0.4 0.7-1.4 1-2.1 0.6s-1-1.4-0.6-2.1l0.2-0.4h-0.4c-0.9 0-1.6-0.7-1.6-1.6s0.7-1.6 1.6-1.6h0.4l-0.2-0.4c-0.4-0.7-0.2-1.7 0.6-2.1 0.7-0.4 1.7-0.2 2.1 0.6l0.2 0.4 0.2-0.4c0.4-0.7 1.4-1 2.1-0.6s1 1.4 0.6 2.1l-0.2 0.5h0.4c0.8 0 1.5 0.7 1.5 1.5zm12.4 0c0 0.9-0.7 1.6-1.6 1.6h-0.4l0.2 0.4c0.4 0.7 0.2 1.7-0.6 2.1-0.7 0.4-1.7 0.2-2.1-0.6l-0.1-0.4-0.2 0.4c-0.4 0.7-1.4 1-2.1 0.6s-1-1.4-0.6-2.1l0.2-0.4h-0.4c-0.9 0-1.5-0.7-1.5-1.6s0.7-1.6 1.5-1.6h0.4l-0.2-0.4c-0.4-0.7-0.2-1.7 0.6-2.1 0.7-0.4 1.7-0.2 2.1 0.6l0.2 0.4 0.2-0.4c0.4-0.7 1.4-1 2.1-0.6s1 1.4 0.6 2.1l-0.2 0.5h0.4c0.8 0 1.5 0.7 1.5 1.5z"/>
			<defs>
				<rect id="SVGID_1_" y="12.7" x="5" height="74.6" width="90"/>
			</defs>
			<clipPath id="SVGID_2_">
				<use xlink:href="#SVGID_1_"/>
			</clipPath>
			<path class="st29" d="m22.1 22h-0.4l0.2-0.4c0.4-0.7 0.2-1.7-0.6-2.1-0.7-0.4-1.7-0.2-2.1 0.6l-0.2 0.3-0.2-0.4c-0.4-0.7-1.4-1-2.1-0.6s-1 1.4-0.6 2.1l0.2 0.4h-0.4c-0.9 0-1.6 0.7-1.6 1.6s0.7 1.6 1.6 1.6h0.4l-0.2 0.4c-0.4 0.7-0.2 1.7 0.6 2.1 0.7 0.4 1.7 0.2 2.1-0.6l0.2-0.4 0.2 0.4c0.4 0.7 1.4 1 2.1 0.6s1-1.4 0.6-2.1l-0.2-0.4h0.4c0.9 0 1.6-0.7 1.6-1.6-0.1-0.8-0.8-1.5-1.6-1.5z"/>
			<path class="st30" d="m94.8 16.2c-0.1-0.4-0.2-0.7-0.4-1.1-0.1-0.1-0.1-0.3-0.2-0.4-0.3-0.5-0.8-0.9-1.3-1.3-0.1-0.1-0.3-0.2-0.4-0.2-0.3-0.2-0.7-0.3-1.1-0.4s-0.8-0.1-1.2-0.1h-80.5c-0.4 0-0.8 0.1-1.2 0.1-0.4 0.1-0.7 0.2-1.1 0.4-0.1 0.1-0.3 0.1-0.4 0.2-0.5 0.3-0.9 0.8-1.3 1.3-0.1 0.1-0.2 0.3-0.2 0.4-0.2 0.3-0.3 0.7-0.4 1.1 0 0.3-0.1 0.7-0.1 1.1v12.4c0 0.4 0.1 0.8 0.1 1.2 0.1 0.4 0.2 0.7 0.4 1.1 0.1 0.1 0.1 0.3 0.2 0.4 0.3 0.5 0.8 0.9 1.3 1.3 0.1 0.1 0.3 0.2 0.4 0.2 0.3 0.2 0.7 0.3 1.1 0.4s0.8 0.1 1.2 0.1h80.6c0.4 0 0.8-0.1 1.2-0.1 0.4-0.1 0.7-0.2 1.1-0.4 0.1-0.1 0.3-0.1 0.4-0.2 0.5-0.3 0.9-0.8 1.3-1.3 0.1-0.1 0.2-0.3 0.2-0.4 0.2-0.3 0.3-0.7 0.4-1.1s0.1-0.8 0.1-1.2v-12.4c-0.1-0.4-0.1-0.8-0.2-1.1zm-4.5 15.1h-80.6c-0.9 0-1.6-0.7-1.6-1.6v-12.4c0-0.9 0.7-1.6 1.6-1.6h80.6c0.9 0 1.6 0.7 1.6 1.6v12.4c-0.1 0.9-0.8 1.6-1.6 1.6z"/>
		<path class="st31" d="m34.5 22h-0.5l0.2-0.4c0.4-0.7 0.2-1.7-0.6-2.1-0.7-0.4-1.7-0.2-2.1 0.6l-0.2 0.4-0.2-0.4c-0.4-0.7-1.4-1-2.1-0.6s-1 1.4-0.6 2.1l0.2 0.4h-0.4c-0.9 0-1.6 0.7-1.6 1.6s0.7 1.6 1.6 1.6h0.4l-0.2 0.4c-0.4 0.7-0.2 1.7 0.6 2.1 0.7 0.4 1.7 0.2 2.1-0.6l0.2-0.4 0.2 0.4c0.4 0.7 1.4 1 2.1 0.6s1-1.4 0.6-2.1l-0.2-0.5h0.4c0.9 0 1.6-0.7 1.6-1.6 0-0.8-0.7-1.5-1.5-1.5z"/>
		<path class="st31" d="m46.9 22h-0.4l0.2-0.4c0.4-0.7 0.2-1.7-0.6-2.1-0.7-0.4-1.7-0.2-2.1 0.6l-0.2 0.4-0.2-0.4c-0.4-0.7-1.4-1-2.1-0.6s-1 1.4-0.6 2.1l0.2 0.4h-0.4c-0.9 0-1.6 0.7-1.6 1.6s0.7 1.6 1.6 1.6h0.4l-0.2 0.4c-0.4 0.7-0.2 1.7 0.6 2.1 0.7 0.4 1.7 0.2 2.1-0.6l0.2-0.4 0.2 0.3c0.4 0.7 1.4 1 2.1 0.6s1-1.4 0.6-2.1l-0.2-0.4h0.4c0.9 0 1.6-0.7 1.6-1.6-0.1-0.8-0.8-1.5-1.6-1.5z"/>
		<path class="st31" d="m59.3 22h-0.4l0.2-0.4c0.4-0.7 0.2-1.7-0.6-2.1-0.7-0.4-1.7-0.2-2.1 0.6l-0.2 0.4-0.2-0.4c-0.4-0.7-1.4-1-2.1-0.6s-1 1.4-0.6 2.1l0.2 0.4h-0.4c-0.9 0-1.6 0.7-1.6 1.6s0.7 1.6 1.6 1.6h0.4l-0.2 0.4c-0.4 0.7-0.2 1.7 0.6 2.1 0.7 0.4 1.7 0.2 2.1-0.6l0.2-0.4 0.2 0.4c0.4 0.7 1.4 1 2.1 0.6s1-1.4 0.6-2.1l-0.2-0.4h0.4c0.9 0 1.6-0.7 1.6-1.6-0.1-0.9-0.8-1.6-1.6-1.6z"/>
		<path class="st31" d="m71.7 22h-0.4l0.2-0.4c0.4-0.7 0.2-1.7-0.6-2.1-0.7-0.4-1.7-0.2-2.1 0.6l-0.2 0.4-0.2-0.4c-0.4-0.7-1.4-1-2.1-0.6s-1 1.4-0.6 2.1l0.2 0.4h-0.4c-0.9 0-1.6 0.7-1.6 1.6s0.7 1.6 1.6 1.6h0.4l-0.2 0.4c-0.4 0.7-0.2 1.7 0.6 2.1 0.7 0.4 1.7 0.2 2.1-0.6l0.2-0.4 0.2 0.4c0.4 0.7 1.4 1 2.1 0.6s1-1.4 0.6-2.1l-0.2-0.4h0.4c0.9 0 1.6-0.7 1.6-1.6-0.1-0.9-0.8-1.6-1.6-1.6z"/>
		<path class="st31" d="m84.1 22h-0.4l0.2-0.4c0.4-0.7 0.2-1.7-0.6-2.1-0.7-0.4-1.7-0.2-2.1 0.6l-0.2 0.3-0.2-0.4c-0.4-0.7-1.4-1-2.1-0.6s-1 1.4-0.6 2.1l0.2 0.4h-0.4c-0.9 0-1.6 0.7-1.6 1.6s0.7 1.6 1.6 1.6h0.4l-0.2 0.4c-0.4 0.7-0.2 1.7 0.6 2.1 0.7 0.4 1.7 0.2 2.1-0.6l0.2-0.4 0.2 0.4c0.4 0.7 1.4 1 2.1 0.6s1-1.4 0.6-2.1l-0.2-0.4h0.4c0.9 0 1.6-0.7 1.6-1.6-0.1-0.8-0.8-1.5-1.6-1.5z"/>
		<path class="st2" d="m90.3 39h-80.6c-2.6 0-4.7 2.1-4.7 4.7v12.4c0 2.6 2.1 4.7 4.7 4.7h80.6c2.6 0 4.7-2.1 4.7-4.7v-12.4c-0.1-2.6-2.2-4.7-4.7-4.7zm-66.7 10.9c0 0.9-0.7 1.6-1.6 1.6h-0.4l0.2 0.4c0.4 0.7 0.2 1.7-0.6 2.1-0.7 0.4-1.7 0.2-2.1-0.6l-0.1-0.4-0.2 0.4c-0.4 0.7-1.4 1-2.1 0.6s-1-1.4-0.6-2.1l0.2-0.4h-0.4c-0.9 0-1.6-0.7-1.6-1.6s0.7-1.6 1.6-1.6h0.4l-0.2-0.3c-0.4-0.7-0.2-1.7 0.6-2.1 0.7-0.4 1.7-0.2 2.1 0.6l0.2 0.4 0.2-0.4c0.4-0.7 1.4-1 2.1-0.6s1 1.4 0.6 2.1l-0.2 0.4h0.4c0.8-0.1 1.5 0.6 1.5 1.5zm12.4 0c0 0.9-0.7 1.6-1.6 1.6h-0.4l0.2 0.4c0.4 0.7 0.2 1.7-0.6 2.1-0.7 0.4-1.7 0.2-2.1-0.6l-0.1-0.4-0.2 0.4c-0.4 0.7-1.4 1-2.1 0.6s-1-1.4-0.6-2.1l0.2-0.4h-0.4c-0.9 0-1.6-0.7-1.6-1.6s0.7-1.6 1.6-1.6h0.4l-0.2-0.3c-0.4-0.7-0.2-1.7 0.6-2.1 0.7-0.4 1.7-0.2 2.1 0.6l0.2 0.4 0.2-0.4c0.4-0.7 1.4-1 2.1-0.6s1 1.4 0.6 2.1l-0.3 0.3h0.4c0.9 0 1.6 0.7 1.6 1.6zm12.4 0c0 0.9-0.7 1.6-1.6 1.6h-0.4l0.2 0.4c0.4 0.7 0.2 1.7-0.6 2.1-0.7 0.4-1.7 0.2-2.1-0.6l-0.1-0.4-0.2 0.4c-0.4 0.7-1.4 1-2.1 0.6s-1-1.4-0.6-2.1l0.2-0.4h-0.4c-0.9 0-1.6-0.7-1.6-1.6s0.7-1.6 1.6-1.6h0.4l-0.2-0.3c-0.4-0.7-0.2-1.7 0.6-2.1 0.7-0.4 1.7-0.2 2.1 0.6l0.2 0.4 0.2-0.4c0.4-0.7 1.4-1 2.1-0.6s1 1.4 0.6 2.1l-0.2 0.4h0.4c0.8-0.1 1.5 0.6 1.5 1.5zm12.4 0c0 0.9-0.7 1.6-1.6 1.6h-0.4l0.2 0.4c0.4 0.7 0.2 1.7-0.6 2.1-0.7 0.4-1.7 0.2-2.1-0.6l-0.1-0.4-0.2 0.3c-0.4 0.7-1.4 1-2.1 0.6s-1-1.4-0.6-2.1l0.2-0.4h-0.4c-0.9 0-1.6-0.7-1.6-1.6s0.7-1.6 1.6-1.6h0.4l-0.2-0.2c-0.4-0.7-0.2-1.7 0.6-2.1 0.7-0.4 1.7-0.2 2.1 0.6l0.2 0.4 0.2-0.4c0.4-0.7 1.4-1 2.1-0.6s1 1.4 0.6 2.1l-0.2 0.4h0.4c0.8-0.1 1.5 0.6 1.5 1.5z"/>
		<path class="st32" d="m90.3 65.4h-27.9c-2.6 0-4.7 2.1-4.7 4.7v12.4c0 2.6 2.1 4.7 4.7 4.7h27.9c2.6 0 4.7-2.1 4.7-4.7v-12.5c-0.1-2.5-2.2-4.6-4.7-4.6zm-14 12.4c0 2.6-2.1 4.7-4.7 4.7s-4.7-2.1-4.7-4.7v-3.1c0-2.6 2.1-4.7 4.7-4.7s4.7 2.1 4.7 4.7v3.1zm9.1 2.2c0.5 0.7 0.3 1.7-0.4 2.2-0.3 0.2-0.6 0.3-0.9 0.3-0.5 0-1-0.2-1.3-0.7l-1.8-2.8v1.9c0 0.9-0.7 1.6-1.6 1.6s-1.6-0.7-1.6-1.6v-9.3c0-0.9 0.7-1.6 1.6-1.6s1.6 0.7 1.6 1.6v1.9l1.8-2.7c0.5-0.7 1.4-0.9 2.2-0.4 0.7 0.5 0.9 1.4 0.4 2.2l-2.5 3.8 2.5 3.6z"/>
		<path class="st32" d="m71.7 73.1c-0.9 0-1.6 0.7-1.6 1.5v3.1c0 0.9 0.7 1.6 1.6 1.6s1.6-0.7 1.6-1.6v-3.1c-0.1-0.8-0.8-1.5-1.6-1.5z"/>
		<path class="st31" d="m22.1 48.3h-0.4l0.2-0.4c0.4-0.7 0.2-1.7-0.6-2.1-0.7-0.4-1.7-0.2-2.1 0.6l-0.2 0.4-0.2-0.4c-0.4-0.7-1.4-1-2.1-0.6s-1 1.4-0.6 2.1l0.2 0.4h-0.4c-0.9 0-1.6 0.7-1.6 1.6s0.7 1.6 1.6 1.6h0.4l-0.2 0.4c-0.4 0.7-0.2 1.7 0.6 2.1 0.7 0.4 1.7 0.2 2.1-0.6l0.2-0.4 0.2 0.4c0.4 0.7 1.4 1 2.1 0.6s1-1.4 0.6-2.1l-0.2-0.4h0.4c0.9 0 1.6-0.7 1.6-1.6-0.1-0.9-0.8-1.6-1.6-1.6z"/>
		<path class="st31" d="m34.5 48.3h-0.5l0.2-0.4c0.4-0.7 0.2-1.7-0.6-2.1-0.7-0.4-1.7-0.2-2.1 0.6l-0.2 0.4-0.2-0.4c-0.4-0.7-1.4-1-2.1-0.6s-1 1.4-0.6 2.1l0.2 0.4h-0.4c-0.9 0-1.6 0.7-1.6 1.6s0.7 1.6 1.6 1.6h0.4l-0.2 0.4c-0.4 0.7-0.2 1.7 0.6 2.1 0.7 0.4 1.7 0.2 2.1-0.6l0.2-0.4 0.2 0.4c0.4 0.7 1.4 1 2.1 0.6s1-1.4 0.6-2.1l-0.2-0.5h0.4c0.9 0 1.6-0.7 1.6-1.6 0-0.8-0.7-1.5-1.5-1.5z"/>
		<path class="st31" d="m46.9 48.3h-0.4l0.2-0.4c0.4-0.7 0.2-1.7-0.6-2.1-0.7-0.4-1.7-0.2-2.1 0.6l-0.2 0.4-0.2-0.4c-0.4-0.7-1.4-1-2.1-0.6s-1 1.4-0.6 2.1l0.2 0.4h-0.4c-0.9 0-1.6 0.7-1.6 1.6s0.7 1.6 1.6 1.6h0.4l-0.2 0.4c-0.4 0.7-0.2 1.7 0.6 2.1 0.7 0.4 1.7 0.2 2.1-0.6l0.2-0.4 0.2 0.4c0.4 0.7 1.4 1 2.1 0.6s1-1.4 0.6-2.1l-0.2-0.4h0.4c0.9 0 1.6-0.7 1.6-1.6-0.1-0.9-0.8-1.6-1.6-1.6z"/>
		<path class="st31" d="m59.3 48.3h-0.4l0.2-0.4c0.4-0.7 0.2-1.7-0.6-2.1-0.7-0.4-1.7-0.2-2.1 0.6l-0.2 0.4-0.2-0.4c-0.4-0.7-1.4-1-2.1-0.6s-1 1.4-0.6 2.1l0.2 0.4h-0.4c-0.9 0-1.6 0.7-1.6 1.6s0.7 1.6 1.6 1.6h0.4l-0.2 0.4c-0.4 0.7-0.2 1.7 0.6 2.1 0.7 0.4 1.7 0.2 2.1-0.6l0.2-0.4 0.2 0.4c0.4 0.7 1.4 1 2.1 0.6s1-1.4 0.6-2.1l-0.2-0.4h0.4c0.9 0 1.6-0.7 1.6-1.6-0.1-0.9-0.8-1.6-1.6-1.6z"/>
		<path class="st4" d="m84.9 70.3c-0.7-0.5-1.7-0.3-2.2 0.4l-1.7 2.7v-1.9c0-0.9-0.7-1.6-1.6-1.6s-1.6 0.7-1.6 1.6v9.3c0 0.9 0.7 1.6 1.6 1.6s1.6-0.7 1.6-1.6v-1.8l1.8 2.7c0.3 0.4 0.8 0.7 1.3 0.7 0.3 0 0.6-0.1 0.9-0.3 0.7-0.5 0.9-1.4 0.4-2.2l-2.5-3.8 2.5-3.8c0.4-0.6 0.2-1.5-0.5-2z"/>
		<path class="st4" d="m71.7 70c-2.6 0-4.7 2.1-4.7 4.7v3.1c0 2.6 2.1 4.7 4.7 4.7s4.7-2.1 4.7-4.7v-3.1c-0.1-2.6-2.2-4.7-4.7-4.7zm1.5 7.8c0 0.9-0.7 1.6-1.6 1.6s-1.6-0.7-1.6-1.6v-3.1c0-0.9 0.7-1.5 1.6-1.5s1.6 0.7 1.6 1.5v3.1z"/>
	</g>
</g>
<g id="Capa_6" class="st0">
	<g class="st1">
		<rect y="75.8" x="46.9" height="14.1" class="st33" width="6.2"/>
		<path class="st34" d="m82.8 88.2v3.1c0 0.9-0.7 1.6-1.6 1.6h-62.4c-0.9 0-1.6-0.7-1.6-1.6v-3.1c0-0.9 0.7-1.6 1.6-1.6h62.4c0.9 0.1 1.6 0.8 1.6 1.6z"/>
		<rect y="86.7" x="40.6" height="6.2" class="st33" width="18.7"/>
		<path class="st35" d="m54.7 96.1h-9.4c-0.9 0-1.6-0.7-1.6-1.6v-9.4c0-0.9 0.7-1.6 1.6-1.6h9.4c0.9 0 1.6 0.7 1.6 1.6v9.4c-0.1 0.9-0.8 1.6-1.6 1.6z"/>
		<path class="st36" d="m65.6 3.9h-42.1c-0.9 0-1.6 0.7-1.6 1.6v71.8c0 0.9 0.7 1.6 1.6 1.6h53.1c0.9 0 1.6-0.7 1.6-1.6v-60.9l-12.6-12.5z"/>
		<path class="st6" d="m78.1 16.4h-10.9c-0.9 0-1.6-0.7-1.6-1.6v-10.9l12.5 12.5z"/>
		<path class="st8" d="m50 28.9h-10.9c-0.9 0-1.6-0.7-1.6-1.6s0.7-1.6 1.6-1.6h10.9c0.9 0 1.6 0.7 1.6 1.6s-0.7 1.6-1.6 1.6z"/>
		<path class="st8" d="m59.4 28.9h-3.1c-0.9 0-1.6-0.7-1.6-1.6s0.7-1.6 1.6-1.6h3.1c0.9 0 1.6 0.7 1.6 1.6-0.1 0.9-0.8 1.6-1.6 1.6z"/>
		<path class="st37" d="m70.3 22.7h-31.2c-0.9 0-1.6-0.7-1.6-1.6s0.7-1.6 1.6-1.6h31.2c0.9 0 1.6 0.7 1.6 1.6s-0.7 1.6-1.6 1.6z"/>
		<path class="st38" d="m34.4 21.1c0 1.7-1.4 3.1-3.1 3.1s-3.1-1.4-3.1-3.1c0-1.7 1.4-3.1 3.1-3.1s3.1 1.4 3.1 3.1z"/>
		<path class="st8" d="m50 41.4h-10.9c-0.9 0-1.6-0.7-1.6-1.6s0.7-1.6 1.6-1.6h10.9c0.9 0 1.6 0.7 1.6 1.6s-0.7 1.6-1.6 1.6z"/>
		<path class="st8" d="m59.4 41.4h-3.1c-0.9 0-1.6-0.7-1.6-1.6s0.7-1.6 1.6-1.6h3.1c0.9 0 1.6 0.7 1.6 1.6-0.1 0.9-0.8 1.6-1.6 1.6z"/>
		<path class="st37" d="m70.3 35.2h-31.2c-0.9 0-1.6-0.7-1.6-1.6s0.7-1.6 1.6-1.6h31.2c0.9 0 1.6 0.7 1.6 1.6s-0.7 1.6-1.6 1.6z"/>
		<path class="st38" d="m34.4 33.6c0 1.7-1.4 3.1-3.1 3.1s-3.1-1.4-3.1-3.1c0-1.7 1.4-3.1 3.1-3.1s3.1 1.4 3.1 3.1z"/>
		<path class="st8" d="m50 53.9h-10.9c-0.9 0-1.6-0.7-1.6-1.6s0.7-1.6 1.6-1.6h10.9c0.9 0 1.6 0.7 1.6 1.6s-0.7 1.6-1.6 1.6z"/>
		<path class="st8" d="m59.4 53.9h-3.1c-0.9 0-1.6-0.7-1.6-1.6s0.7-1.6 1.6-1.6h3.1c0.9 0 1.6 0.7 1.6 1.6-0.1 0.9-0.8 1.6-1.6 1.6z"/>
		<path class="st37" d="m70.3 47.7h-31.2c-0.9 0-1.6-0.7-1.6-1.6s0.7-1.6 1.6-1.6h31.2c0.9 0 1.6 0.7 1.6 1.6s-0.7 1.6-1.6 1.6z"/>
		<path class="st38" d="m34.4 46.1c0 1.7-1.4 3.1-3.1 3.1s-3.1-1.4-3.1-3.1 1.4-3.1 3.1-3.1 3.1 1.4 3.1 3.1z"/>
		<path class="st8" d="m50 66.4h-10.9c-0.9 0-1.6-0.7-1.6-1.6s0.7-1.6 1.6-1.6h10.9c0.9 0 1.6 0.7 1.6 1.6s-0.7 1.6-1.6 1.6z"/>
		<path class="st8" d="m59.4 66.4h-3.1c-0.9 0-1.6-0.7-1.6-1.6s0.7-1.6 1.6-1.6h3.1c0.9 0 1.6 0.7 1.6 1.6-0.1 0.9-0.8 1.6-1.6 1.6z"/>
		<path class="st37" d="m70.3 60.1h-31.2c-0.9 0-1.6-0.7-1.6-1.6s0.7-1.6 1.6-1.6h31.2c0.9 0 1.6 0.7 1.6 1.6s-0.7 1.6-1.6 1.6z"/>
		<path class="st38" d="m34.4 58.6c0 1.7-1.4 3.1-3.1 3.1s-3.1-1.4-3.1-3.1 1.4-3.1 3.1-3.1 3.1 1.4 3.1 3.1z"/>
	</g>
</g>
</svg>
